Chapter 4 Results | Understanding the Spread and Waves of COVID-19 Pandemic
…
            Understanding the Spread and Waves of COVID-19 Pandemic

Chapter 4 Results

First, we want to determine the best measurement metrics for pandemic spread. From the dataset, we have three metrics to choose from: “New Positives”, “Cumulative Number of Positives”, “Test % Positive”. During the pandemic, people and media often use number of new cases each day to reflect the severity of the pandemic, but we suspect daily new cases is not an accurate metrics, due to its potential correlation to the number of tests performed each day. With more tests performed, more new cases would be discovered and documented. At the start of the pandemic, the shortage of supplies and immature pandemic combat tactics were very likely to result in a low number of testing performed. Therefore, we hypothesize “Test % Positive” is a better metrics that reflect the pandemic spread, in contrary to what most people perceive. Moreoever, “New Positives” and “Total Number of Tests Performed” have a positive correlation.

See below for the cleaned dataset. There are no missing values, and we converted the “Test Date” column to date type, “Test % Positive” to double. We also converted all multi-word column titles to have an underscore “” instead of a whitespace, to maintain best coding practices. On top of this, we also converted the percentage sign in “Test%_Positive” to be the word “pct”, so the column became “Test_pct_Positive”.

## # A tibble: 74,314 × 8
##    Test_Date  County           New_Positives Cumulative_Number_of_Positives Total_Number_of_Tests_Performed Cumulative_Number_of_Te…¹ Test_…² Geogr…³
##    <date>     <chr>                    <dbl>                          <dbl>                           <dbl>                     <dbl>   <dbl> <chr>  
##  1 2022-12-13 Albany                      50                          76182                             596                   1414357    7.33 COUNTY 
##  2 2022-12-13 Allegany                     5                          10479                              77                    250537    6.15 COUNTY 
##  3 2022-12-13 Bronx                      518                         489863                            5272                   8960600    8.78 COUNTY 
##  4 2022-12-13 Broome                      38                          56828                             684                   1194076    5.78 COUNTY 
##  5 2022-12-13 Capital Region             194                         275880                            2448                   5303110    7.42 REGION 
##  6 2022-12-13 Cattaraugus                 11                          18742                             154                    309815   10.5  COUNTY 
##  7 2022-12-13 Cayuga                       6                          19791                             262                    399588    2.17 COUNTY 
##  8 2022-12-13 Central New York            88                         221165                            2444                   4442412    3.7  REGION 
##  9 2022-12-13 Chautauqua                   9                          28555                             186                    532991    3.95 COUNTY 
## 10 2022-12-13 Chemung                     15                          26049                             466                    488383    4.84 COUNTY 
## # … with 74,304 more rows, and abbreviated variable names ¹​Cumulative_Number_of_Tests_Performed, ²​Test_pct_Positive, ³​Geography
…
